module gitlab.com/MindTooth/go-gcl

go 1.19

require (
	github.com/charmbracelet/bubbles v0.15.0
	github.com/charmbracelet/bubbletea v0.23.2
	github.com/google/go-github/v50 v50.0.0
	github.com/muesli/reflow v0.3.0
	github.com/muesli/termenv v0.14.0
	github.com/xanzy/go-gitlab v0.80.2
)

require (
	github.com/atotto/clipboard v0.1.4 // indirect
	github.com/aymanbagabas/go-osc52 v1.2.1 // indirect
	github.com/charmbracelet/lipgloss v0.6.0 // indirect
	github.com/containerd/console v1.0.3 // indirect
	github.com/golang/protobuf v1.5.2 // indirect
	github.com/google/go-querystring v1.1.0 // indirect
	github.com/hashicorp/go-cleanhttp v0.5.2 // indirect
	github.com/hashicorp/go-retryablehttp v0.7.1 // indirect
	github.com/lucasb-eyer/go-colorful v1.2.0 // indirect
	github.com/mattn/go-isatty v0.0.17 // indirect
	github.com/mattn/go-localereader v0.0.1 // indirect
	github.com/mattn/go-runewidth v0.0.14 // indirect
	github.com/muesli/ansi v0.0.0-20211018074035-2e021307bc4b // indirect
	github.com/muesli/cancelreader v0.2.2 // indirect
	github.com/rivo/uniseg v0.2.0 // indirect
	golang.org/x/crypto v0.0.0-20210817164053-32db794688a5 // indirect
	golang.org/x/net v0.4.0 // indirect
	golang.org/x/oauth2 v0.3.0 // indirect
	golang.org/x/sync v0.1.0 // indirect
	golang.org/x/sys v0.3.0 // indirect
	golang.org/x/term v0.3.0 // indirect
	golang.org/x/text v0.5.0 // indirect
	golang.org/x/time v0.3.0 // indirect
	google.golang.org/appengine v1.6.7 // indirect
	google.golang.org/protobuf v1.28.1 // indirect
)
